Workshop Week 1 | Applied Longitudinal Data Analysis
…
##   old_name = col_character(),
##   item_text = col_character(),
##   scale = col_character(),
##   category = col_character(),
##   label = col_character(),
##   item_name = col_character(),
##   year = col_double(),
##   new_name = col_character(),
##   reverse = col_double(),
##   mini = col_double(),
##   maxi = col_double(),
##   recode = col_character()
## )

## # A tibble: 153 x 13
##    dataset old_name item_text scale category label item_name  year new_name
##    <chr>   <chr>    <chr>     <chr> <chr>    <chr> <chr>     <dbl> <chr>   
##  1 <NA>    persnr   Never Ch… <NA>  Procedu… <NA>  SID           0 Procedu…
##  2 <NA>    hhnr     househol… <NA>  Procedu… <NA>  household     0 Procedu…
##  3 ppfad   gebjahr  Year of … nume… Demogra… <NA>  DOB           0 Demogra…
##  4 ppfad   sex      Sex       "\n1… Demogra… <NA>  Sex           0 Demogra…
##  5 vp      vp12501  Thorough… <NA>  Big 5    C     thorough   2005 Big 5__…
##  6 zp      zp12001  Thorough… <NA>  Big 5    C     thorough   2009 Big 5__…
##  7 bdp     bdp15101 Thorough… <NA>  Big 5    C     thorough   2013 Big 5__…
##  8 vp      vp12502  Am commu… <NA>  Big 5    E     communic   2005 Big 5__…
##  9 zp      zp12002  Am commu… <NA>  Big 5    E     communic   2009 Big 5__…
## 10 bdp     bdp15102 Am commu… <NA>  Big 5    E     communic   2013 Big 5__…
## # … with 143 more rows, and 4 more variables: reverse <dbl>, mini <dbl>,
## #   maxi <dbl>, recode <chr>
…
(soep <- url(sprintf("%s/data/week_1_data.csv?raw=true", wd)) %>% # path to data
  read_csv(.) %>% # read in data
  select(old.names) %>% # select the columns from our codebook
  setNames(new.names)) # rename columns with our new names

## Parsed with column specification:
## cols(
##   .default = col_double()
## )

## See spec(...) for full column specifications.

## # A tibble: 28,290 x 153
##    Procedural__SID Procedural__hou… Demographic__DOB Demographic__Sex
##              <dbl>            <dbl>            <dbl>            <dbl>
##  1             901               94             1951                2
##  2            1202              124             1913                2
##  3            2301              230             1946                1
##  4            2302              230             1946                2
##  5            2304              230             1978                1
##  6            2305              230             1946                2
##  7            4601              469             1933                2
##  8            4701              477             1919                2
##  9            4901              493             1925                2
## 10            5201              523             1955                1
## # … with 28,280 more rows, and 149 more variables: `Big
## #   5__C_thorough.2005` <dbl>, `Big 5__C_thorough.2009` <dbl>, `Big
## #   5__C_thorough.2013` <dbl>, `Big 5__E_communic.2005` <dbl>, `Big
## #   5__E_communic.2009` <dbl>, `Big 5__E_communic.2013` <dbl>, `Big
## #   5__A_coarse.2005` <dbl>, `Big 5__A_coarse.2009` <dbl>, `Big
## #   5__A_coarse.2013` <dbl>, `Big 5__O_original.2005` <dbl>, `Big
## #   5__O_original.2009` <dbl>, `Big 5__O_original.2013` <dbl>, `Big
## #   5__N_worry.2005` <dbl>, `Big 5__N_worry.2009` <dbl>, `Big
## #   5__N_worry.2013` <dbl>, `Big 5__A_forgive.2005` <dbl>, `Big
…
Clean Data

Recode Variables

Many of the data we work with have observations that are missing for a variety of reasons. In R, we treat missing values as NA, but many other programs from which you may be importing your data may use other codes (e.g. 999, -999, etc.). Large panel studies tend to use small negative values to indicate different types of missingness. This is why it is important to note down the scale in your codebook. That way you can check which values may need to be recoded to explicit NA values.

In the GSOEP, -1 to -7 indicate various types of missing values, so we will recode these to NA. To do this, we will use one of my favorite functions, mapvalues(), from the plyr package. In later tutorials where we read in and manipulate more complex data sets, we will use mapvalues() a lot. Basically, mapvalues takes 4 key arguments: (1) the variable you are recoding, (2) a vector of initial values from which you want to (3) recode your variable to using a vector of new values in the same order as the old values, and (4) a way to turn off warnings if some levels are not in your data (warn_missing = F).

(soep <- soep %>%
  mutate_all(~as.numeric(mapvalues(., from = seq(-1,-7, -1), # recode negative 
                to = rep(NA, 7), warn_missing = F)))) # values to NA

## # A tibble: 28,290 x 153
##    Procedural__SID Procedural__hou… Demographic__DOB Demographic__Sex
##              <dbl>            <dbl>            <dbl>            <dbl>
##  1             901               94             1951                2
##  2            1202              124             1913                2
##  3            2301              230             1946                1
##  4            2302              230             1946                2
##  5            2304              230             1978                1
##  6            2305              230             1946                2
##  7            4601              469             1933                2
##  8            4701              477             1919                2
##  9            4901              493             1925                2
## 10            5201              523             1955                1
## # … with 28,280 more rows, and 149 more variables: `Big
## #   5__C_thorough.2005` <dbl>, `Big 5__C_thorough.2009` <dbl>, `Big
## #   5__C_thorough.2013` <dbl>, `Big 5__E_communic.2005` <dbl>, `Big
## #   5__E_communic.2009` <dbl>, `Big 5__E_communic.2013` <dbl>, `Big
## #   5__A_coarse.2005` <dbl>, `Big 5__A_coarse.2009` <dbl>, `Big
## #   5__A_coarse.2013` <dbl>, `Big 5__O_original.2005` <dbl>, `Big
## #   5__O_original.2009` <dbl>, `Big 5__O_original.2013` <dbl>, `Big
## #   5__N_worry.2005` <dbl>, `Big 5__N_worry.2009` <dbl>, `Big
## #   5__N_worry.2013` <dbl>, `Big 5__A_forgive.2005` <dbl>, `Big
…
## Joining, by = "item"

## Warning: Expected 2 pieces. Missing pieces filled with `NA` in 19618 rows
## [452105, 452106, 452107, 452108, 452109, 452110, 452111, 452112, 452113,
## 452114, 452115, 452116, 452117, 452118, 452119, 452120, 452121, 452122,
## 452123, 452124, ...].

## # A tibble: 471,722 x 12
##    Procedural__SID Procedural__hou… Demographic__DOB Demographic__Sex type 
##              <dbl>            <dbl>            <dbl>            <dbl> <chr>
##  1             901               94             1951                2 Big 5
##  2            1202              124             1913                2 Big 5
##  3            2301              230             1946                1 Big 5
##  4            2302              230             1946                2 Big 5
##  5            2304              230             1978                1 Big 5
##  6            4601              469             1933                2 Big 5
##  7            4701              477             1919                2 Big 5
##  8            4901              493             1925                2 Big 5
##  9            5201              523             1955                1 Big 5
## 10            5202              523             1956                2 Big 5
## # … with 471,712 more rows, and 7 more variables: item <chr>, scrap <chr>,
## #   year <chr>, value <dbl>, reverse <dbl>, mini <dbl>, maxi <dbl>
…
soep <- soep %>% select(-C.2005) # get rid of added column

(b5_soep_long <- soep_long %>%
  filter(type == "Big 5") %>% # keep Big 5 variables
  group_by(Procedural__SID, item, year) %>% # group by person, construct, & year
  summarize(value = mean(value, na.rm = T)) %>% # calculate means
  ungroup() %>% # ungroup
  left_join(soep_long %>% # bring demographic info back in 
    select(Procedural__SID, DOB = Demographic__DOB, Sex = Demographic__Sex) %>%
    distinct()))

## Joining, by = "Procedural__SID"

## # A tibble: 151,186 x 6
##    Procedural__SID item  year  value   DOB   Sex
##              <dbl> <chr> <chr> <dbl> <dbl> <dbl>
##  1             901 A     2005   5     1951     2
##  2             901 A     2009   5.33  1951     2
##  3             901 A     2013   5     1951     2
##  4             901 C     2005   5.33  1951     2
##  5             901 C     2009   5.5   1951     2
##  6             901 C     2013   6     1951     2
##  7             901 E     2005   4     1951     2
##  8             901 E     2009   4     1951     2
##  9             901 E     2013   4     1951     2
## 10             901 N     2005   4     1951     2
## # … with 151,176 more rows

Life Events

We also want to create a variable that indexes whether our participants experienced any of the life events during the years of interest (2005-2015).

(events_long <- soep_long %>%
  filter(type == "Life Event") %>% # keep only life events
  group_by(Procedural__SID, item) %>% # group by person and event
  summarize(value = sum(value, na.rm = T), # sum up whether they experiened the event at all
            value = ifelse(value > 1, 1, 0))) # if more than once 1, otherwise 0

## # A tibble: 15,061 x 3
## # Groups:   Procedural__SID [10,019]
##    Procedural__SID item      value
##              <dbl> <chr>     <dbl>
##  1             901 MomDied       1
##  2            2301 MoveIn        0
##  3            2301 PartDied      1
##  4            2305 MoveIn        0
##  5            4601 PartDied      0
##  6            5201 ChldMvOut     1
##  7            5201 DadDied       0
##  8            5202 ChldMvOut     1
##  9            5203 MoveIn        1
## 10            5303 MomDied       0
## # … with 15,051 more rows
…
