Workshop #3 | Applied Longitudinal Data Analysis
…
(df6 <- tibble(year = 2005:2015) %>%
  mutate(data = map(year, read_fun)) %>%
  select(-year) %>%
  unnest(data) )

## # A tibble: 256,663 x 151
##    Procedural__SID Procedural__hou… `Big 5__C_thoro… `Big 5__E_commu…
##              <dbl>            <dbl>            <dbl>            <dbl>
##  1             901               94                6                4
##  2            1202              124                7                6
##  3            2301              230                7                6
##  4            2304              230                5                7
##  5            2302              230                6                5
##  6            4601              469                6                6
##  7            4701              477                6                6
##  8            4901              493                5                7
##  9            5201              523                7                5
## 10            5202              523                6                5
## # … with 256,653 more rows, and 147 more variables: `Big
## #   5__A_coarse.2005` <dbl>, `Big 5__O_original.2005` <dbl>, `Big
## #   5__N_worry.2005` <dbl>, `Big 5__A_forgive.2005` <dbl>, `Big
## #   5__C_lazy.2005` <dbl>, `Big 5__E_sociable.2005` <dbl>, `Big
## #   5__O_artistic.2005` <dbl>, `Big 5__N_nervous.2005` <dbl>, `Big
## #   5__C_efficient.2005` <dbl>, `Big 5__E_reserved.2005` <dbl>, `Big
## #   5__A_friendly.2005` <dbl>, `Big 5__O_imagin.2005` <dbl>, `Big
## #   5__N_dealStress.2005` <dbl>, `Life Event__ChldBrth.2005` <dbl>, `Life
## #   Event__ChldMvOut.2005` <dbl>, `Life Event__Divorce.2005` <dbl>, `Life
…
Clean Data

Now the data are all loaded in and have been given informative variable names, but we still need to do some data cleaning for the personality data.

We’ll start by selecting only the personality variables and reverse-scoring them. Then we’ll create composites. To do so, we’ll again use our codebook.

# reverse code
(df6_long <- df6 %>%
  select(Procedural__SID, contains("Big 5")) %>%
  gather(key = item, value = value, -Procedural__SID, na.rm = T) %>%
  left_join(codebook %>% select(item = new_name, reverse, mini, maxi)) %>%
  mutate(value = ifelse(reverse == 1, value, 
                        reverse.code(-1, value, mini = mini, maxi = maxi))))

## # A tibble: 544,830 x 6
##    Procedural__SID item                   value reverse  mini  maxi
##              <dbl> <chr>                  <dbl>   <dbl> <dbl> <dbl>
##  1             901 Big 5__C_thorough.2005     6       1     1     8
##  2            1202 Big 5__C_thorough.2005     7       1     1     8
##  3            2301 Big 5__C_thorough.2005     7       1     1     8
##  4            2304 Big 5__C_thorough.2005     5       1     1     8
##  5            2302 Big 5__C_thorough.2005     6       1     1     8
##  6            4601 Big 5__C_thorough.2005     6       1     1     8
##  7            4701 Big 5__C_thorough.2005     6       1     1     8
##  8            4901 Big 5__C_thorough.2005     5       1     1     8
##  9            5201 Big 5__C_thorough.2005     7       1     1     8
## 10            5202 Big 5__C_thorough.2005     6       1     1     8
## # … with 544,820 more rows

# create compoistes  
(df6_long <- df6_long %>%
  mutate(item = str_remove(item, "Big 5__")) %>%
  separate(item, c("trait", "item"), sep = "_") %>%
  separate(item, c("item", "year"), sep = "[.]") %>%
  group_by(Procedural__SID, trait, year) %>%
  summarize(value = mean(value, na.rm = T)) %>%
  ungroup())

## # A tibble: 181,610 x 4
##    Procedural__SID trait year  value
##              <dbl> <chr> <chr> <dbl>
##  1             901 A     2005   5   
##  2             901 A     2009   5.33
##  3             901 A     2013   5   
##  4             901 C     2005   5.33
##  5             901 C     2009   3.33
##  6             901 C     2013   6   
##  7             901 E     2005   4   
##  8             901 E     2009   4   
##  9             901 E     2013   4   
## 10             901 N     2005   4   
## # … with 181,600 more rows
…
0.88

4.75

15544

Coding Time

It’s important to remember how we code time. There are several ways we can do it. For now, for simplicity, we will create a new wave variable where 2005 = 0, 2009 = 1, and 2013 = 3, but we could make a lot of other choices depending on our goals.

(df6_long <- df6_long %>%
  mutate(wave = as.numeric(mapvalues(year, from = seq(2005, 2013, 4), to = seq(0, 2, 1)))))

## # A tibble: 181,610 x 5
##    Procedural__SID trait year  value  wave
##              <dbl> <chr> <chr> <dbl> <dbl>
##  1             901 A     2005   5        0
##  2             901 A     2009   5.33     1
##  3             901 A     2013   5        2
##  4             901 C     2005   5.33     0
##  5             901 C     2009   3.33     1
##  6             901 C     2013   6        2
##  7             901 E     2005   4        0
##  8             901 E     2009   4        1
##  9             901 E     2013   4        2
## 10             901 N     2005   4        0
## # … with 181,600 more rows

It’s going to get mad later when I run growth models if I keep people with only one wave, so we’re going to remove them now.

(df6_long <- df6_long %>%
  group_by(trait, Procedural__SID) %>%
  filter(n() > 1) %>%
  ungroup())

## # A tibble: 110,935 x 5
##    Procedural__SID trait year  value  wave
##              <dbl> <chr> <chr> <dbl> <dbl>
##  1             901 A     2005   5        0
##  2             901 A     2009   5.33     1
##  3             901 A     2013   5        2
##  4             901 C     2005   5.33     0
##  5             901 C     2009   3.33     1
##  6             901 C     2013   6        2
##  7             901 E     2005   4        0
##  8             901 E     2009   4        1
##  9             901 E     2013   4        2
## 10             901 N     2005   4        0
## # … with 110,925 more rows
…
Now we have a new column called tidy that contains a data frame. But we want to be able to see those values. This is where purrr will really shine once again, especially when coupled with the unnest() from tidyr. Watch:

df6_nested %>%
  select(trait, tidy) %>%
  unnest(tidy)

## # A tibble: 30 x 9
## # Groups:   trait [5]
##    trait effect group term  estimate std.error statistic conf.low conf.high
##    <chr> <chr>  <chr> <chr>    <dbl>     <dbl>     <dbl>    <dbl>     <dbl>
##  1 A     fixed  <NA>  (Int…   5.77     0.0107     539.     5.75      5.79  
##  2 A     fixed  <NA>  wave   -0.0576   0.00646     -8.91  -0.0702   -0.0449
##  3 A     ran_p… Proc… sd__…   0.701   NA           NA     NA        NA     
##  4 A     ran_p… Proc… sd__…   0.107   NA           NA     NA        NA     
##  5 A     ran_p… Proc… cor_…  -0.121   NA           NA     NA        NA     
##  6 A     ran_p… Resi… sd__…   0.707   NA           NA     NA        NA     
##  7 C     fixed  <NA>  (Int…   6.22     0.0105     592.     6.20      6.24  
##  8 C     fixed  <NA>  wave   -0.0461   0.00633     -7.29  -0.0586   -0.0337
##  9 C     ran_p… Proc… sd__…   0.699   NA           NA     NA        NA     
## 10 C     ran_p… Proc… sd__…   0.143   NA           NA     NA        NA     
## # … with 20 more rows
This is fine, but kind of ugly (I can’t publish this table, and it should be clear right now that I do not like copying and pasting).

The code below is going to clean this up a bit. See if you can figure out what’s going on:

terms <- tibble(old = c("(Intercept)", "wave", "sd__(Intercept)", "sd__wave",
                        "cor__(Intercept).wave", "sd__Observation"),
                new = c("Intercept", "Slope", "SD Intercept", "SD Slope", "Intercept-Slope Correlation", "SD Residual"))

(tab <- df6_nested %>%
  select(trait, tidy) %>%
  unnest(tidy) %>% 
  mutate(term = mapvalues(term, from = terms$old, to = terms$new)) %>%
  select(trait, effect, term, estimate, conf.low, conf.high))

## # A tibble: 30 x 6
## # Groups:   trait [5]
##    trait effect   term                        estimate conf.low conf.high
##    <chr> <chr>    <chr>                          <dbl>    <dbl>     <dbl>
##  1 A     fixed    Intercept                     5.77     5.75      5.79  
##  2 A     fixed    Slope                        -0.0576  -0.0702   -0.0449
##  3 A     ran_pars SD Intercept                  0.701   NA        NA     
##  4 A     ran_pars SD Slope                      0.107   NA        NA     
##  5 A     ran_pars Intercept-Slope Correlation  -0.121   NA        NA     
##  6 A     ran_pars SD Residual                   0.707   NA        NA     
##  7 C     fixed    Intercept                     6.22     6.20      6.24  
##  8 C     fixed    Slope                        -0.0461  -0.0586   -0.0337
##  9 C     ran_pars SD Intercept                  0.699   NA        NA     
## 10 C     ran_pars SD Slope                      0.143   NA        NA     
## # … with 20 more rows
…
