Workshop #4 | Applied Longitudinal Data Analysis
…
SensSeek
Sensation-Seeking Composite
Yes

CESD
CESD Depression Composite
Yes

load(url(sprintf("%s/ALDA/week_4_plotting/data/sample.RData", data_path)))

sample_dat

## # A tibble: 2,084 x 8
##    PROC_CID   age  year  age0 groups    CESD SensSeek DemPweight
##       <dbl> <dbl> <dbl> <dbl> <fct>    <dbl>    <dbl>      <dbl>
##  1     1601    16  2006     2 CommServ 0.429     3.67     0.816 
##  2     1601    18  2008     4 CommServ 2         3        0.816 
##  3     9102    16  2012     2 None     0.182     3.33     0.671 
##  4     9501    14  2000     0 Jail     0.5       3        0.548 
##  5     9501    18  2004     4 Jail     0.429     3        0.548 
##  6     9501    22  2008     8 Jail     0.429     3        0.548 
##  7     9502    14  2002     0 Jail     0.143     3        0.421 
##  8     9502    16  2004     2 Jail     0.286     3        0.421 
##  9     9502    20  2008     6 Jail     0         3        0.421 
## 10     9503    16  2004     2 Jail     1.71      3        0.0314
## # … with 2,074 more rows

Restructure Data

These data are already largely cleaned as that is not our focus today. We just need to do a little bit of restructuring.

To run our models using purrr, we need to restrucutre the data to long. While we’re at it, we need to create a time variable centered at zero, so we can interpret our moderators later.

(df1_long <- sample_dat %>%
  gather(key = trait, value = value, CESD, SensSeek, na.rm = T) %>%
   mutate(wave = year - 1996,
          age0 = age-16)) 

## # A tibble: 4,168 x 9
##    PROC_CID   age  year  age0 groups   DemPweight trait value  wave
##       <dbl> <dbl> <dbl> <dbl> <fct>         <dbl> <chr> <dbl> <dbl>
##  1     1601    16  2006     0 CommServ     0.816  CESD  0.429    10
##  2     1601    18  2008     2 CommServ     0.816  CESD  2        12
##  3     9102    16  2012     0 None         0.671  CESD  0.182    16
##  4     9501    14  2000    -2 Jail         0.548  CESD  0.5       4
##  5     9501    18  2004     2 Jail         0.548  CESD  0.429     8
##  6     9501    22  2008     6 Jail         0.548  CESD  0.429    12
##  7     9502    14  2002    -2 Jail         0.421  CESD  0.143     6
##  8     9502    16  2004     0 Jail         0.421  CESD  0.286     8
##  9     9502    20  2008     4 Jail         0.421  CESD  0        12
## 10     9503    16  2004     0 Jail         0.0314 CESD  1.71      8
## # … with 4,158 more rows
…
